{
  "name": "3 x 3 + 1",
  "heightInUnits": 160,
  "widthInUnits": 260,
  "unitsPerMillivolt": 10,
  "unitsPerSecond": 25,
  "grids": [
    { "step" : 1, "rgb": [255,220,220] },
    { "step": 5, "rgb": [255,200,200] }
  ],
  "calibrators": [
    { "xOffset": 0, "yOffset": 23 },
    { "xOffset": 0, "yOffset": 63 },
    { "xOffset": 0, "yOffset": 103 },
    { "xOffset": 0, "yOffset": 145 }
  ],
  "traces": [
    { "lead": "I", "xOffset": 7, "yOffset": 23, "length": 3333, "mark": false },
    { "lead": "II", "xOffset": 7, "yOffset": 63, "length": 3333, "mark": false },
    {  "lead": "III", "xOffset": 7, "yOffset": 103, "length": 3333, "mark": false },
    { "lead": "aVR", "xOffset": 90.3, "yOffset": 23, "offset": 3333, "length": 3333, "mark": true },
    { "lead": "aVL", "xOffset": 90.3, "yOffset": 63, "offset": 3333, "length": 3333, "mark": true },
    { "lead": "aVF", "xOffset": 90.3, "yOffset": 103, "offset": 3333, "length": 3333, "mark": true },
    { "lead": "V1", "xOffset": 173.63, "yOffset": 23, "offset": 6666, "length": 3333, "mark": true },
    { "lead": "V2", "xOffset": 173.63, "yOffset": 63, "offset": 6666, "length": 3333, "mark": true },
    { "lead": "V3", "xOffset": 173.63, "yOffset": 103, "offset": 6666, "length": 3333, "mark": true },
    { "lead": "II", "xOffset": 7, "yOffset": 145, "length": 10000, "mark": false }
  ]
}